{
  "$schema": "https://github.com/fastfetch-cli/fastfetch/raw/dev/doc/json_schema.json",
  "modules": [
    "title",
    "break",
    "os",
    "host",
    "kernel",
    "uptime",
    "packages",
    "shell",
    "display",
    "wm",
    "cursor",
    "terminal",
    "terminalfont",
    "cpu",
    "gpu",
    "break",
    "colors",
    "break"
  ]
}
